/* ********************************************
 * 파일명 = 사이즈
 ******************************************* */

00_pop_ad_dictionary.html = 492*517

00_pop_ad_dictionary_v1.html = 492*517

00_pop_ad_dictionary_v2.html = 492*517

00_pop_ad_dictionary_v3.html = 492*517

00_pop_ad_dictionary_view.html = 500*577

02_pop_adguide.html = 640*704

02_pop_advertising.html = 740*686

02_pop_braneunit.html = 464*550

02_pop_seasonal.html = 740*523

02_pop_strategyset.html = 464*426

02_pop_weighting.html = 640*489

05_pop_adist_query.html =  640*747

05_pop_alert.html = 320*205

05_pop_ars_modify.html = 464*506

05_pop_ep_evt.html = 464*678

05_pop_review_evt.html = 464*678

05_pop_sent_app.html = 464*678

05_pop_sq_unscbe.html = 464*314

06_pop_law1.html = 640*670

06_pop_law2.html = 464*246

06_pop_law3.html = 640*586

06_pop_law4.html = 640*730